{
  "$schema": "https://schema.management.azure.com/schemas/2015-01-01/deploymentTemplate.json#",
  "contentVersion": "1.0.0.0",
  "parameters": {},
  "variables": {
    "container1name": "sikatan-backend-coba-coba",
    "container1image": "ppl5c2018/sikatan-backend:coba-coba",
    "container2name": "sikatan-backend-sit-uat",
    "container2image": "ppl5c2018/sikatan-backend:sit-uat",
    "container3name": "sikatan-backend-prod",
    "container3image": "ppl5c2018/sikatan-backend:prod"
  },
  "resources": [
    {
      "name": "sikatan-backend",
      "type": "Microsoft.ContainerInstance/containerGroups",
      "apiVersion": "2017-10-01-preview",
      "location": "[resourceGroup().location]",
      "properties": {
        "containers": [
          {
            "name": "[variables('container1name')]",
            "properties": {
              "image": "[variables('container1image')]",
              "resources": {
                "requests": {
                  "cpu": 0.2,
                  "memoryInGb": 0.5
                }
              },
              "ports": [
                {
                  "port": 8080
                }
              ]
            }
          },
           {
            "name": "[variables('container2name')]",
            "properties": {
              "image": "[variables('container2image')]",
              "resources": {
                "requests": {
                  "cpu": 0.2,
                  "memoryInGb": 0.5
                }
              },
              "ports": [
                {
                  "port": 8081
                }
              ]
            }
          },
           {
            "name": "[variables('container3name')]",
            "properties": {
              "image": "[variables('container3image')]",
              "resources": {
                "requests": {
                  "cpu": 0.2,
                  "memoryInGb": 0.5
                }
              },
              "ports": [
                {
                  "port": 8082
                }
              ]
            }
          }
        ],
        "osType": "Linux",
        "ipAddress": {
          "type": "Public",
          "ports": [
            {
              "protocol": "tcp",
              "port": "8080"
            },
            {
              "protocol": "tcp",
              "port": "8081"
            },
            {
              "protocol": "tcp",
              "port": "8082"
            }
          ]
        }
      }
    }
  ],
  "outputs": {
    "containerIPv4Address": {
      "type": "string",
      "value": "[reference(resourceId('Microsoft.ContainerInstance/containerGroups/', 'sikatan-backend')).ipAddress.ip]"
    }
  }
}